{
    "id": "com.modxvm.xvm",
    "name": "XVM",
    "description": "XVM",

    "version": "XVM_VERSION",
    "dependencies": ["com.modxvm.xfw.libraries"],
    "dependencies_optional": [
        "com.modxvm.xfw.filewatcher",
        "com.modxvm.xfw.mutex"
    ],

    "url": "https://modxvm.com/",
    "url_update": "https://modxvm.com/",

    "wot_version_min": "WOT_VERSION",
    "wot_version_exactmatch": false,

    "features": ["actionscript", "python"]
}
